"","Instituicao","Ano","n","freq"
"1","FGV",1972,1,0.000108908734480505
"2","PUC_SP",1982,1,6.46245314721468e-05
"3","PUC_SP",1985,1,6.46245314721468e-05
"4","PUC_SP",1987,1,6.46245314721468e-05
"5","PUC_SP",1988,1,6.46245314721468e-05
"6","PUC_SP",1991,1,6.46245314721468e-05
"7","UERJ",1982,1,0.000160359204618345
"8","UERJ",2018,1,0.000160359204618345
"9","UFBA",1754,1,0.000109709270433352
"10","UFBA",1790,1,0.000109709270433352
"11","UFBA",1838,1,0.000109709270433352
"12","UFBA",1862,1,0.000109709270433352
"13","UFBA",1871,1,0.000109709270433352
"14","UFBA",1882,1,0.000109709270433352
"15","UFBA",1913,1,0.000109709270433352
"16","UFBA",1921,1,0.000109709270433352
"17","UFBA",1927,1,0.000109709270433352
"18","UFBA",1951,1,0.000109709270433352
"19","UFBA",1956,1,0.000109709270433352
"20","UFBA",1972,1,0.000109709270433352
"21","UFBA",1974,1,0.000109709270433352
"22","UFBA",1975,1,0.000109709270433352
"23","UFBA",1982,1,0.000109709270433352
"24","UFBA",1984,1,0.000109709270433352
"25","UFBA",1987,1,0.000109709270433352
"26","UFBA",1988,1,0.000109709270433352
"27","UFBA",1989,1,0.000109709270433352
"28","UFBA",1998,1,0.000109709270433352
"29","UFC",1986,1,4.31369165732034e-05
"30","UFC",1992,1,4.31369165732034e-05
"31","UFES",1994,1,0.000108565845185105
"32","UFES",1996,1,0.000108565845185105
"33","UFES",1997,1,0.000108565845185105
"34","UFES",1998,1,0.000108565845185105
"35","UFMG",1972,1,7.14030703320243e-05
"36","UFPE",1979,1,5.60255476497283e-05
"37","UFPE",1981,1,5.60255476497283e-05
"38","UFPE",1983,1,5.60255476497283e-05
"39","UFPE",1989,1,5.60255476497283e-05
"40","UFPE",2018,1,5.60255476497283e-05
"41","UFRGS",1958,1,1.53219134005455e-05
"42","UFRGS",1967,1,1.53219134005455e-05
"43","UFRN",1988,1,8.82456759618779e-05
"44","UFSCAR",1992,1,0.00010864841373316
"45","UFSCAR",1997,1,0.00010864841373316
"46","UFV",1964,1,8.88888888888889e-05
"47","UFV",1979,1,8.88888888888889e-05
"48","UFV",1984,1,8.88888888888889e-05
"49","UNB",1964,1,5.10308226168606e-05
"50","UNB",1976,1,5.10308226168606e-05
"51","UNB",1979,1,5.10308226168606e-05
"52","UNB",1980,1,5.10308226168606e-05
"53","UNB",1983,1,5.10308226168606e-05
"54","UNB",1984,1,5.10308226168606e-05
"55","UNB",1989,1,5.10308226168606e-05
"56","UNB",1990,1,5.10308226168606e-05
"57","UNESP",1967,1,2.87207766097995e-05
"58","UNESP",1972,1,2.87207766097995e-05
"59","UNESP",1980,1,2.87207766097995e-05
"60","UNICAMP",1964,1,2.2002200220022e-05
"61","UNICAMP",1966,1,2.2002200220022e-05
"62","UNIFESP",1947,1,6.89655172413793e-05
"63","UNIFESP",1956,1,6.89655172413793e-05
"64","UNIFESP",1958,1,6.89655172413793e-05
"65","PUC_RS",1999,2,0.000139275766016713
"66","PUC_SP",1990,2,0.000129249062944294
"67","UERJ",1988,2,0.00032071840923669
"68","UERJ",1989,2,0.00032071840923669
"69","UERJ",1990,2,0.00032071840923669
"70","UERJ",1991,2,0.00032071840923669
"71","UERJ",1997,2,0.00032071840923669
"72","UFBA",1856,2,0.000219418540866703
"73","UFBA",1857,2,0.000219418540866703
"74","UFBA",1860,2,0.000219418540866703
"75","UFBA",1875,2,0.000219418540866703
"76","UFBA",1888,2,0.000219418540866703
"77","UFBA",1916,2,0.000219418540866703
"78","UFBA",1977,2,0.000219418540866703
"79","UFBA",1978,2,0.000219418540866703
"80","UFBA",1981,2,0.000219418540866703
"81","UFBA",1983,2,0.000219418540866703
"82","UFBA",1986,2,0.000219418540866703
"83","UFBA",1993,2,0.000219418540866703
"84","UFC",1985,2,8.62738331464067e-05
"85","UFC",1989,2,8.62738331464067e-05
"86","UFES",1999,2,0.00021713169037021
"87","UFES",2000,2,0.00021713169037021
"88","UFMG",1974,2,0.000142806140664049
"89","UFPE",1982,2,0.000112051095299457
"90","UFPE",1986,2,0.000112051095299457
"91","UFRN",1985,2,0.000176491351923756
"92","UFRN",1992,2,0.000176491351923756
"93","UFRN",1993,2,0.000176491351923756
"94","UFRN",1995,2,0.000176491351923756
"95","UFRN",1997,2,0.000176491351923756
"96","UFSC",1971,2,6.22296897849964e-05
"97","UFSCAR",1998,2,0.000217296827466319
"98","UFV",1987,2,0.000177777777777778
"99","UNB",1982,2,0.000102061645233721
"100","UNB",1985,2,0.000102061645233721
"101","UNB",1987,2,0.000102061645233721
"102","UNESP",1973,2,5.74415532195991e-05
"103","UNESP",1979,2,5.74415532195991e-05
"104","UNESP",1984,2,5.74415532195991e-05
"105","UNESP",1986,2,5.74415532195991e-05
"106","UNESP",1991,2,5.74415532195991e-05
"107","UNICAMP",1968,2,4.4004400440044e-05
"108","PUC_RS",1996,3,0.00020891364902507
"109","PUC_SP",1989,3,0.00019387359441644
"110","PUC_SP",1996,3,0.00019387359441644
"111","UERJ",1987,3,0.000481077613855035
"112","UFBA",1985,3,0.000329127811300055
"113","UFBA",1991,3,0.000329127811300055
"114","UFBA",1995,3,0.000329127811300055
"115","UFC",1996,3,0.00012941074971961
"116","UFMG",1903,3,0.000214209210996073
"117","UFRN",1996,3,0.000264737027885634
"118","UFV",1989,3,0.000266666666666667
"119","UFV",1990,3,0.000266666666666667
"120","UFV",1993,3,0.000266666666666667
"121","UNB",1991,3,0.000153092467850582
"122","UNB",1993,3,0.000153092467850582
"123","UNB",1997,3,0.000153092467850582
"124","UNIFESP",1964,3,0.000206896551724138
"125","FGV",1970,4,0.000435634937922021
"126","PUC_RIO",1967,4,0.000389294403892944
"127","PUC_RIO",1969,4,0.000389294403892944
"128","PUC_RIO",1970,4,0.000389294403892944
"129","PUC_RS",1998,4,0.000278551532033426
"130","PUC_SP",1983,4,0.000258498125888587
"131","UFBA",1980,4,0.000438837081733406
"132","UFBA",1992,4,0.000438837081733406
"133","UFBA",1994,4,0.000438837081733406
"134","UFMG",1975,4,0.000285612281328097
"135","UFPE",1987,4,0.000224102190598913
"136","UFPE",1990,4,0.000224102190598913
"137","UFRGS",1964,4,6.12876536021818e-05
"138","UFRGS",1969,4,6.12876536021818e-05
"139","UFRN",1994,4,0.000352982703847511
"140","UFSCAR",1996,4,0.000434593654932638
"141","UFSCAR",1999,4,0.000434593654932638
"142","UFV",1985,4,0.000355555555555556
"143","UFV",1986,4,0.000355555555555556
"144","UNB",1988,4,0.000204123290467442
"145","UNB",1994,4,0.000204123290467442
"146","USP",1970,4,5.12905997153372e-05
"147","USP",1974,4,5.12905997153372e-05
"148","FGV",1971,5,0.000544543672402527
"149","PUC_RS",1997,5,0.000348189415041783
"150","PUC_RS",2001,5,0.000348189415041783
"151","UERJ",1999,5,0.000801796023091725
"152","UFBA",1979,5,0.000548546352166758
"153","UFBA",1996,5,0.000548546352166758
"154","UFBA",1997,5,0.000548546352166758
"155","UFES",2001,5,0.000542829225925524
"156","UFRGS",1974,5,7.66095670027273e-05
"157","UNIFESP",2018,5,0.000344827586206897
"158","PUC_SP",1998,6,0.000387747188832881
"159","UFC",1991,6,0.00025882149943922
"160","UFMG",1973,6,0.000428418421992146
"161","UFMG",1976,6,0.000428418421992146
"162","UFMG",1977,6,0.000428418421992146
"163","UFMG",1978,6,0.000428418421992146
"164","UFPE",1988,6,0.00033615328589837
"165","UFPE",1991,6,0.00033615328589837
"166","UFPE",1996,6,0.00033615328589837
"167","UFSC",1970,6,0.000186689069354989
"168","UFV",1983,6,0.000533333333333333
"169","UFV",1991,6,0.000533333333333333
"170","UFV",1992,6,0.000533333333333333
"171","UNB",1992,6,0.000306184935701164
"172","UNB",1995,6,0.000306184935701164
"173","UNIFESP",1966,6,0.000413793103448276
"174","UNIFESP",1967,6,0.000413793103448276
"175","UNIFESP",1968,6,0.000413793103448276
"176","PUC_SP",1992,7,0.000452371720305028
"177","UERJ",2002,7,0.00112251443232842
"178","UFBA",1999,7,0.000767964893033461
"179","UFPE",1992,7,0.000392178833548098
"180","UFPE",1993,7,0.000392178833548098
"181","UFPE",1995,7,0.000392178833548098
"182","UFPE",1998,7,0.000392178833548098
"183","UFRN",1998,7,0.000617719731733145
"184","UFV",1994,7,0.000622222222222222
"185","UNESP",1989,7,0.000201045436268597
"186","UNESP",1990,7,0.000201045436268597
"187","FGV",1973,8,0.000871269875844043
"188","PUC_RS",2002,8,0.000557103064066852
"189","UFMG",1979,8,0.000571224562656194
"190","UFPE",1997,8,0.000448204381197826
"191","UFSC",1972,8,0.000248918759139986
"192","UNB",1998,8,0.000408246580934885
"193","UNIFESP",1969,8,0.000551724137931035
"194","FGV",1969,9,0.000980178610324548
"195","PUC_SP",1994,9,0.000581620783249321
"196","PUC_SP",1999,9,0.000581620783249321
"197","UFC",1995,9,0.00038823224915883
"198","UFPE",1994,9,0.000504229928847554
"199","UFRGS",1972,9,0.000137897220604909
"200","UFV",1988,9,8e-04
"201","UFV",1995,9,8e-04
"202","PUC_RIO",1971,10,0.00097323600973236
"203","PUC_SP",1995,10,0.000646245314721468
"204","UFMG",1983,10,0.000714030703320243
"205","UFRGS",1970,10,0.000153219134005455
"206","UNESP",1988,10,0.000287207766097995
"207","PUC_SP",1997,11,0.000710869846193615
"208","UFES",2002,11,0.00119422429703615
"209","UFMG",1986,11,0.000785433773652267
"210","UNB",1999,11,0.000561339048785466
"211","UERJ",1992,12,0.00192431045542014
"212","UERJ",1993,12,0.00192431045542014
"213","UERJ",2003,12,0.00192431045542014
"214","UFMG",1982,12,0.000856836843984291
"215","UNESP",1987,12,0.000344649319317594
"216","PUC_RIO",1972,13,0.00126520681265207
"217","PUC_RIO",1978,13,0.00126520681265207
"218","UFRN",2000,13,0.00114719378750441
"219","UNB",2002,13,0.000663400694019188
"220","UNICAMP",1967,13,0.000286028602860286
"221","UNICAMP",1969,13,0.000286028602860286
"222","UFMG",1980,14,0.00099964298464834
"223","UFRGS",1973,14,0.000214506787607636
"224","UFSC",1973,14,0.000435607828494975
"225","UNIFESP",1970,14,0.00096551724137931
"226","USP",1971,14,0.00017951709900368
"227","PUC_RIO",1973,15,0.00145985401459854
"228","PUC_RS",2000,15,0.00104456824512535
"229","UFRN",1999,15,0.00132368513942817
"230","UNB",2001,15,0.000765462339252909
"231","PUC_RIO",1979,16,0.00155717761557178
"232","UFBA",2000,16,0.00175534832693363
"233","UFES",2003,16,0.00173705352296168
"234","UFSCAR",2000,16,0.00173837461973055
"235","UNESP",1993,16,0.000459532425756792
"236","UNIFESP",1971,16,0.00110344827586207
"237","PUC_RIO",1977,17,0.00165450121654501
"238","PUC_RIO",1980,18,0.00175182481751825
"239","UFMG",1981,18,0.00128525526597644
"240","PUC_RS",2003,19,0.00132311977715877
"241","UFSCAR",2001,19,0.00206431986093003
"242","UNESP",1992,19,0.000545694755586191
"243","UNESP",1994,19,0.000545694755586191
"244","PUC_RIO",1976,20,0.00194647201946472
"245","UFMG",1987,20,0.00142806140664049
"246","UFPE",1999,20,0.00112051095299457
"247","UNICAMP",2018,20,0.00044004400440044
"248","FGV",1974,21,0.00228708342409061
"249","PUC_RIO",1982,21,0.00204379562043796
"250","UFMG",1984,21,0.00149946447697251
"251","UFMG",1985,21,0.00149946447697251
"252","UFMG",1991,21,0.00149946447697251
"253","UFMG",1995,21,0.00149946447697251
"254","UNESP",1996,21,0.00060313630880579
"255","PUC_RIO",1975,22,0.00214111922141119
"256","PUC_RIO",1983,22,0.00214111922141119
"257","UFC",1999,22,0.000949012164610474
"258","UFRGS",1971,22,0.000337082094812
"259","UNICAMP",1970,22,0.000484048404840484
"260","USP",1969,22,0.000282098298434354
"261","PUC_RIO",1974,23,0.00223844282238443
"262","FGV",1975,24,0.00261380962753213
"263","PUC_RIO",1984,24,0.00233576642335766
"264","PUC_SP",2000,24,0.00155098875533152
"265","UFMG",1994,24,0.00171367368796858
"266","UFRGS",1975,24,0.000367725921613091
"267","USP",1975,24,0.000307743598292023
"268","UFRN",2001,25,0.00220614189904695
"269","PUC_RIO",1985,26,0.00253041362530414
"270","UFMG",1992,26,0.00185647982863263
"271","UNESP",1995,26,0.000746740191854788
"272","UNICAMP",1971,26,0.000572057205720572
"273","PUC_RIO",1981,27,0.00262773722627737
"274","UFSC",1974,27,0.000840100812097452
"275","USP",1973,27,0.000346211548078526
"276","PUC_RIO",1989,28,0.00272506082725061
"277","UFC",1997,28,0.00120783366404969
"278","UFC",2000,28,0.00120783366404969
"279","UNB",2004,28,0.0014288630332721
"280","UNB",2000,29,0.00147989385588896
"281","UNB",2003,29,0.00147989385588896
"282","PUC_RIO",1986,30,0.00291970802919708
"283","PUC_RIO",1987,30,0.00291970802919708
"284","PUC_RIO",1995,30,0.00291970802919708
"285","UERJ",2004,30,0.00481077613855035
"286","UFPE",2000,30,0.00168076642949185
"287","UFSCAR",2018,30,0.00325945241199478
"288","UNIFESP",1972,30,0.00206896551724138
"289","UNIFESP",1973,30,0.00206896551724138
"290","PUC_RIO",1990,31,0.00301703163017032
"291","UFBA",2001,32,0.00351069665386725
"292","UFMG",1993,32,0.00228489825062478
"293","UFRGS",1978,32,0.000490301228817455
"294","UFV",1996,32,0.00284444444444444
"295","UNICAMP",2017,32,0.000704070407040704
"296","PUC_RIO",1994,33,0.00321167883211679
"297","UFV",1998,33,0.00293333333333333
"298","PUC_RIO",1993,34,0.00330900243309002
"299","PUC_SP",2002,34,0.00219723407005299
"300","UFMG",1988,34,0.00242770439128883
"301","UFRN",2002,34,0.00300035298270385
"302","UNIFESP",1975,34,0.0023448275862069
"303","USP",1976,34,0.000435970097580366
"304","PUC_RIO",1988,35,0.00340632603406326
"305","UFES",2004,35,0.00379980458147867
"306","UNESP",1998,35,0.00100522718134298
"307","UNIFESP",1974,35,0.00241379310344828
"308","UFV",1997,36,0.0032
"309","UNESP",1997,36,0.00103394795795278
"310","UFMG",1997,38,0.00271331667261692
"311","UFSC",1976,38,0.00118236410591493
"312","UNIFESP",1976,38,0.00262068965517241
"313","UERJ",2000,40,0.0064143681847338
"314","PUC_SP",2001,41,0.00264960579035802
"315","UFMG",1989,41,0.002927525883613
"316","UFMG",1990,41,0.002927525883613
"317","UFC",1998,42,0.00181175049607454
"318","UFRGS",1976,42,0.000643520362822909
"319","UFSC",1975,42,0.00130682348548492
"320","UNICAMP",2016,43,0.000946094609460946
"321","FGV",1976,44,0.00479198431714224
"322","UFC",2001,44,0.00189802432922095
"323","UFMG",1996,44,0.00314173509460907
"324","UFRGS",1985,44,0.000674164189624
"325","USP",1978,44,0.000564196596868709
"326","PUC_SP",2003,45,0.00290810391624661
"327","UERJ",2001,45,0.00721616420782553
"328","UFSC",1977,45,0.00140016802016242
"329","UNICAMP",1972,45,0.00099009900990099
"330","UFRGS",1977,46,0.000704808016425091
"331","UNESP",1999,46,0.00132115572405078
"332","UNIFESP",2016,46,0.00317241379310345
"333","UNIFESP",2017,46,0.00317241379310345
"334","FGV",1977,48,0.00522761925506426
"335","USP",1981,48,0.000615487196584046
"336","USP",1977,49,0.00062830984651288
"337","UFRGS",1984,50,0.000766095670027273
"338","PUC_RIO",1992,52,0.00506082725060827
"339","UFBA",2002,52,0.00570488206253428
"340","FGV",1979,53,0.00577216292746678
"341","PUC_RS",2004,53,0.0036908077994429
"342","UNICAMP",1973,53,0.00116611661166117
"343","PUC_RIO",1996,55,0.00535279805352798
"344","PUC_SP",2004,55,0.00355434923096808
"345","UFMG",1998,55,0.00392716886826134
"346","USP",1980,55,0.000705245746085886
"347","UFRGS",1981,56,0.000858027150430546
"348","UFSC",1978,58,0.0018046610037649
"349","FGV",1981,59,0.00642561533434982
"350","PUC_RIO",1991,59,0.00574209245742092
"351","UNIFESP",1977,59,0.00406896551724138
"352","UFMG",1999,60,0.00428418421992146
"353","UFPE",2001,60,0.0033615328589837
"354","UFRN",2003,61,0.00538298623367455
"355","UFRGS",1980,62,0.000949958630833819
"356","UFV",1999,65,0.00577777777777778
"357","USP",1982,65,0.000833472245374229
"358","UFRGS",1983,66,0.001011246284436
"359","UNIFESP",1978,66,0.00455172413793103
"360","FGV",1986,68,0.00740579394467436
"361","UFRGS",1982,68,0.00104189011123709
"362","FGV",1988,69,0.00751470267915487
"363","UNIFESP",1980,69,0.00475862068965517
"364","UFRGS",1979,70,0.00107253393803818
"365","UNIFESP",1979,70,0.00482758620689655
"366","USP",1979,70,0.000897585495018401
"367","FGV",1978,71,0.00773252014811588
"368","UERJ",2005,72,0.0115458627325208
"369","USP",1985,72,0.000923230794876069
"370","FGV",1984,75,0.0081681550860379
"371","UNIFESP",2015,75,0.00517241379310345
"372","FGV",1983,76,0.00827706382051841
"373","FGV",1980,77,0.00838597255499891
"374","UFSCAR",2002,80,0.00869187309865276
"375","FGV",1985,81,0.00882160749292093
"376","FGV",1987,81,0.00882160749292093
"377","PUC_RIO",1997,81,0.00788321167883212
"378","USP",1983,81,0.00103863464423558
"379","USP",1988,81,0.00103863464423558
"380","FGV",1991,83,0.00903942496188194
"381","UNICAMP",1974,83,0.00182618261826183
"382","UFRGS",1986,84,0.00128704072564582
"383","USP",1987,86,0.00110274789387975
"384","FGV",1989,87,0.00947505989980396
"385","PUC_RIO",1998,87,0.00846715328467153
"386","UNB",2005,87,0.00443968156766687
"387","UFBA",2003,89,0.00976412506856829
"388","USP",1984,89,0.00114121584366625
"389","UFRN",2004,90,0.00794211083656901
"390","UFMG",2000,92,0.00656908247054623
"391","UFRGS",1988,92,0.00140961603285018
"392","PUC_RIO",2000,93,0.00905109489051095
"393","UFRGS",1987,94,0.00144025985965127
"394","USP",1986,94,0.00120532909331042
"395","FGV",1992,95,0.010346329775648
"396","UNIFESP",1982,95,0.00655172413793103
"397","UFSC",1979,97,0.00301813995457233
"398","UFC",2002,101,0.00435682857389354
"399","UFES",2005,101,0.0109651503636956
"400","USP",1989,103,0.00132073294266993
"401","UFSC",1984,104,0.00323594386881981
"402","UNIFESP",1983,105,0.00724137931034483
"403","UNESP",2000,106,0.00304440232063875
"404","UFSC",1982,108,0.00336040324838981
"405","UNIFESP",1981,108,0.00744827586206897
"406","PUC_RIO",1999,109,0.0106082725060827
"407","UFSC",1986,110,0.0034226329381748
"408","UNIFESP",1984,111,0.0076551724137931
"409","UFSC",2010,112,0.0034848626279598
"410","UFSC",1981,113,0.0035159774728523
"411","UFSC",1985,113,0.0035159774728523
"412","UFRGS",1989,114,0.00174669812766218
"413","FGV",1990,116,0.0126334131997386
"414","UFSC",1983,117,0.00364043685242229
"415","FGV",1995,122,0.0132868656066217
"416","UNICAMP",1975,122,0.00268426842684268
"417","USP",1991,128,0.00164129919089079
"418","FGV",1994,129,0.0140492267479852
"419","FGV",1997,130,0.0141581354824657
"420","FGV",1998,133,0.0144848616859072
"421","FGV",1993,134,0.0145937704203877
"422","USP",1990,135,0.00173105774039263
"423","UFRGS",1990,136,0.00208378022247418
"424","UFSC",1987,136,0.00423161890537976
"425","FGV",1999,138,0.0150294053583097
"426","UFSC",1980,139,0.00432496344005725
"427","FGV",1996,142,0.0154650402962318
"428","UFRGS",1992,147,0.00225232126988018
"429","UNIFESP",1985,148,0.0102068965517241
"430","PUC_RS",2005,149,0.0103760445682451
"431","UFMG",2002,150,0.0107104605498036
"432","UFMG",2001,151,0.0107818636201357
"433","FGV",1982,155,0.0168808538444783
"434","UFBA",2004,156,0.0171146461876029
"435","UFSC",1988,157,0.00488503064812222
"436","USP",1992,158,0.00202597868875582
"437","PUC_RIO",2001,159,0.0154744525547445
"438","UFC",2003,159,0.00685876973513933
"439","UFRGS",1991,162,0.00248214997088836
"440","UNICAMP",1978,162,0.00356435643564356
"441","FGV",2000,163,0.0177521237203224
"442","UNICAMP",1977,168,0.0036963696369637
"443","UNIFESP",1986,169,0.0116551724137931
"444","UNIFESP",1987,173,0.0119310344827586
"445","UFC",2018,176,0.00759209731688379
"446","FGV",2005,177,0.0192768460030494
"447","UFSC",1989,180,0.00560067208064968
"448","USP",1993,182,0.00233372228704784
"449","UFES",2006,183,0.0198675496688742
"450","UERJ",2006,186,0.0298268120590122
"451","FGV",2004,188,0.020474842082335
"452","UFV",2000,188,0.0167111111111111
"453","UNIFESP",1988,189,0.0130344827586207
"454","USP",1994,191,0.00244912613640735
"455","UNIFESP",2014,196,0.0135172413793103
"456","UNICAMP",1976,197,0.00433443344334433
"457","UFMG",2003,206,0.014709032488397
"458","UFSCAR",2003,215,0.0233594089526293
"459","UFSC",1990,216,0.00672080649677961
"460","UNICAMP",1979,226,0.00497249724972497
"461","UNICAMP",1980,228,0.00501650165016502
"462","UNIFESP",1990,228,0.0157241379310345
"463","UFES",2007,229,0.024861578547389
"464","UNIFESP",1989,230,0.0158620689655172
"465","UFRN",2005,232,0.0204729968231557
"466","UNIFESP",1991,232,0.016
"467","UFRGS",1993,238,0.00364661538932982
"468","UNICAMP",1982,238,0.00523652365236524
"469","UFBA",2005,243,0.0266593527153044
"470","UFSC",1992,244,0.00759202215376956
"471","UNICAMP",1981,246,0.00541254125412541
"472","PUC_RIO",2002,248,0.0241362530413625
"473","UNICAMP",1983,248,0.00545654565456546
"474","PUC_RIO",2018,250,0.024330900243309
"475","UNICAMP",1986,253,0.00556655665566557
"476","UFRGS",1994,258,0.00395305365734073
"477","UFRGS",1995,264,0.004044985137744
"478","UFBA",2018,267,0.0292923752057049
"479","UFSC",1991,267,0.00830766358629702
"480","FGV",2006,270,0.0294053583097364
"481","USP",1995,270,0.00346211548078526
"482","FGV",2003,271,0.0295142670442169
"483","FGV",2007,272,0.0296231757786975
"484","UNICAMP",1984,281,0.00618261826182618
"485","FGV",2002,286,0.0311478980614245
"486","UNIFESP",1992,290,0.02
"487","USP",1996,290,0.00371856847936194
"488","UFBA",2006,293,0.032144816236972
"489","UFES",2008,296,0.032135490174791
"490","FGV",2001,299,0.0325637116096711
"491","UFRGS",1996,304,0.00465786167376582
"492","UNICAMP",1985,304,0.00668866886688669
"493","UFSC",1993,306,0.00952114253710445
"494","UNESP",2001,306,0.00878855764259866
"495","UFRN",2018,309,0.0272679138722203
"496","UERJ",2007,316,0.050673508659397
"497","UFV",2002,318,0.0282666666666667
"498","UFMG",2004,320,0.0228489825062478
"499","FGV",2009,330,0.0359398823785668
"500","UFRGS",1997,334,0.00511751907578218
"501","UFPE",2002,342,0.0191607372962071
"502","UFV",2018,342,0.0304
"503","UFSCAR",2005,350,0.0380269448066058
"504","FGV",2008,351,0.0382269658026574
"505","USP",1997,363,0.00465462192416685
"506","UFSCAR",2004,364,0.0395480225988701
"507","UNIFESP",1993,366,0.0252413793103448
"508","UNICAMP",1988,367,0.00807480748074807
"509","UNIFESP",1994,375,0.0258620689655172
"510","UNIFESP",1995,375,0.0258620689655172
"511","UFV",2001,376,0.0334222222222222
"512","UNICAMP",1987,380,0.00836083608360836
"513","UFC",2004,381,0.0164351652143905
"514","UFMG",2015,383,0.0273473759371653
"515","UFSC",1994,386,0.0120103301285043
"516","UFES",2009,395,0.0428835088481164
"517","UFSCAR",2006,397,0.0431334202520643
"518","FGV",2011,400,0.0435634937922021
"519","UFV",2004,401,0.0356444444444444
"520","UFBA",2010,402,0.0441031267142074
"521","UFRGS",1998,404,0.00619005301382037
"522","FGV",2010,406,0.0442169461990852
"523","UERJ",2008,409,0.0655869146889031
"524","PUC_RS",2018,411,0.0286211699164345
"525","UFSC",1995,415,0.0129126606303868
"526","UFV",2003,421,0.0374222222222222
"527","UFBA",2007,423,0.0464070213933077
"528","UNIFESP",1996,424,0.0292413793103448
"529","FGV",2018,425,0.0462862121542148
"530","UFSCAR",2007,429,0.0466101694915254
"531","UNIFESP",1997,433,0.0298620689655172
"532","UNESP",2002,438,0.0125797001550922
"533","FGV",2013,445,0.0484643868438249
"534","USP",1998,450,0.00577019246797543
"535","FGV",2014,451,0.0491178392507079
"536","FGV",2012,458,0.0498802003920714
"537","UERJ",2015,466,0.0747273893521488
"538","UNIFESP",2013,466,0.0321379310344828
"539","UFSCAR",2008,468,0.0508474576271186
"540","UFBA",2008,472,0.051782775644542
"541","UFRN",2007,472,0.0416519590540064
"542","UFES",2010,478,0.0518944739984801
"543","UFMG",2005,478,0.0341306676187076
"544","UFRGS",1999,482,0.00738516225906291
"545","PUC_RIO",2003,488,0.0474939172749392
"546","UFBA",2009,488,0.0535381239714756
"547","UFV",2005,490,0.0435555555555556
"548","UNIFESP",1998,503,0.0346896551724138
"549","UFV",2006,504,0.0448
"550","UFRN",2006,505,0.0445640663607483
"551","FGV",2017,507,0.0552167283816162
"552","UNIFESP",1999,509,0.0351034482758621
"553","PUC_RIO",2013,511,0.0497323600973236
"554","USP",1999,513,0.00657801941349199
"555","UNIFESP",2007,514,0.035448275862069
"556","PUC_RIO",2011,520,0.0506082725060827
"557","UNIFESP",2000,522,0.036
"558","UFSC",1996,523,0.0162730638787766
"559","UNICAMP",1989,524,0.0115291529152915
"560","UFBA",2011,529,0.058036204059243
"561","UFSC",2009,537,0.0167086717072715
"562","PUC_RIO",2014,539,0.0524574209245742
"563","FGV",2015,541,0.0589196253539534
"564","PUC_RIO",2010,542,0.0527493917274939
"565","UNIFESP",2002,542,0.0373793103448276
"566","UFV",2007,555,0.0493333333333333
"567","UFSCAR",2017,560,0.0608431116905693
"568","UNICAMP",1990,560,0.0123212321232123
"569","PUC_RIO",2006,567,0.0551824817518248
"570","PUC_RIO",2017,571,0.0555717761557178
"571","UFSCAR",2009,571,0.0620382442416341
"572","PUC_RIO",2004,577,0.0561557177615572
"573","UFSC",1997,582,0.018108839727434
"574","PUC_RIO",2012,583,0.0567396593673966
"575","PUC_RIO",2016,586,0.0570316301703163
"576","UNIFESP",2005,586,0.0404137931034483
"577","UFC",2005,592,0.0255370546113364
"578","PUC_RIO",2005,594,0.0578102189781022
"579","PUC_RIO",2009,597,0.0581021897810219
"580","PUC_SP",2005,601,0.0388393434147602
"581","UNIFESP",2008,602,0.0415172413793103
"582","PUC_RIO",2007,603,0.0586861313868613
"583","FGV",2016,604,0.0657808756262252
"584","UERJ",2009,605,0.0970173187940988
"585","UNIFESP",2001,608,0.0419310344827586
"586","UNIFESP",2012,611,0.0421379310344828
"587","PUC_RIO",2015,617,0.0600486618004866
"588","UNIFESP",2006,618,0.0426206896551724
"589","UNB",2018,619,0.0315880791998367
"590","UFES",2011,627,0.0680707849310607
"591","PUC_RIO",2008,637,0.0619951338199513
"592","UFSCAR",2010,637,0.0692090395480226
"593","UFRN",2009,642,0.0566537239675256
"594","UFV",2010,643,0.0571555555555556
"595","PUC_RS",2017,644,0.0448467966573816
"596","UNIFESP",2011,647,0.0446206896551724
"597","UNIFESP",2009,654,0.0451034482758621
"598","UNIFESP",2010,654,0.0451034482758621
"599","PUC_SP",2018,658,0.0425229417086726
"600","UFRN",2008,667,0.0588598658665725
"601","UFV",2008,672,0.0597333333333333
"602","UFBA",2012,673,0.0738343390016456
"603","UNIFESP",2004,674,0.0464827586206897
"604","USP",2000,684,0.00877069255132266
"605","UFV",2017,689,0.0612444444444444
"606","UFV",2009,694,0.0616888888888889
"607","UERJ",2010,700,0.112251443232842
"608","UFES",2018,702,0.0762132233199435
"609","UFSCAR",2011,710,0.0771403737505432
"610","UNESP",2004,710,0.0203917513929577
"611","UNESP",2003,729,0.0209374461485439
"612","UFBA",2017,730,0.0800877674163467
"613","UFV",2012,745,0.0662222222222222
"614","UNICAMP",1991,756,0.0166336633663366
"615","UFV",2014,759,0.0674666666666667
"616","UFES",2012,761,0.0826186081858647
"617","UERJ",2011,769,0.123316228351507
"618","UFPE",2004,772,0.0432517227855902
"619","UFSCAR",2012,772,0.0838765754019991
"620","UFSC",1998,775,0.0241140047916861
"621","PUC_RS",2016,779,0.0542479108635097
"622","UNICAMP",1992,781,0.0171837183718372
"623","UFV",2015,782,0.0695111111111111
"624","UFRN",2011,784,0.0691846099541122
"625","UFV",2016,785,0.0697777777777778
"626","UFV",2011,791,0.0703111111111111
"627","UFPE",2005,793,0.0444282592862345
"628","UNICAMP",1993,794,0.0174697469746975
"629","UERJ",2014,798,0.127966645285439
"630","UFBA",2016,805,0.088315962698848
"631","UFPE",2017,825,0.0462210768110258
"632","UFRN",2010,834,0.0735968937522061
"633","UFRGS",2000,844,0.0129316949100604
"634","UFSCAR",2013,850,0.0923511516731856
"635","UFPE",2003,855,0.0479018432405177
"636","UERJ",2012,856,0.137267479153303
"637","UFV",2013,864,0.0768
"638","USP",2001,873,0.0111941733878723
"639","UFSCAR",2014,874,0.0949587136027814
"640","UNIFESP",2003,878,0.060551724137931
"641","UFRN",2012,880,0.0776561948464525
"642","UERJ",2013,881,0.141276459268762
"643","UFPE",2007,895,0.0501428651465068
"644","UFSC",2011,895,0.0278477861787859
"645","UFBA",2014,901,0.0988480526604498
"646","UFSC",1999,908,0.0282522791623884
"647","UFSCAR",2016,912,0.0990873533246415
"648","UNICAMP",1994,919,0.0202200220022002
"649","PUC_RS",2006,925,0.0644150417827298
"650","UFPE",2006,933,0.0522718359571965
"651","UFBA",2015,934,0.10246845858475
"652","UFSCAR",2015,938,0.101912212081704
"653","UNESP",2005,955,0.0274283416623586
"654","UFMG",2006,975,0.0696179935737237
"655","UFRN",2013,975,0.0860395340628309
"656","PUC_SP",2006,986,0.0637197880315368
"657","UFSC",2017,999,0.0310837300476057
"658","UFC",2006,1016,0.0438271072383746
"659","UFES",2013,1018,0.110520030398437
"660","UNICAMP",1995,1020,0.0224422442244224
"661","PUC_SP",2013,1027,0.0663693938218948
"662","UFES",2017,1028,0.111605688850288
"663","UFES",2016,1029,0.111714254695473
"664","PUC_SP",2017,1059,0.0684373788290035
"665","PUC_SP",2014,1069,0.069083624143725
"666","UFC",2017,1112,0.0479682512294021
"667","UFES",2015,1130,0.122679405059168
"668","PUC_SP",2011,1132,0.0731549696264702
"669","UFMG",2008,1133,0.0808996786861835
"670","UNB",2010,1147,0.0585323535415391
"671","UFRN",2017,1150,0.10148252735616
"672","PUC_RS",2013,1156,0.0805013927576602
"673","UFRN",2014,1157,0.102100247087893
"674","UFES",2014,1159,0.125827814569536
"675","PUC_SP",2012,1164,0.0752229546335789
"676","UNICAMP",1996,1165,0.0256325632563256
"677","UFPE",2008,1167,0.0653818141072329
"678","UNB",2006,1169,0.05965503163911
"679","PUC_SP",2007,1172,0.0757399508853561
"680","UFRN",2015,1174,0.103600423579245
"681","PUC_SP",2015,1188,0.0767739433889104
"682","UFMG",2009,1189,0.0848982506247769
"683","PUC_SP",2016,1191,0.0769678169833269
"684","PUC_RS",2009,1199,0.0834958217270195
"685","UFPE",2010,1209,0.0677348871085215
"686","UNB",2007,1215,0.0620024494794856
"687","UFMG",2007,1219,0.0870403427347376
"688","UFMG",2014,1223,0.0873259550160657
"689","UNICAMP",1997,1226,0.026974697469747
"690","USP",2002,1226,0.0157205688127508
"691","UFPE",2014,1229,0.0688553980615161
"692","UFSC",2008,1238,0.0385201779769128
"693","PUC_RS",2007,1241,0.0864206128133705
"694","UNICAMP",2015,1246,0.0274147414741474
"695","PUC_RS",2010,1248,0.086908077994429
"696","UFPE",2009,1251,0.0700879601098101
"697","PUC_RS",2012,1255,0.0873955431754875
"698","UFSC",2000,1256,0.0390802451849778
"699","PUC_RS",2008,1262,0.087883008356546
"700","UFSC",2007,1276,0.0397025420828277
"701","PUC_SP",2008,1281,0.0827840248158201
"702","UFMG",2010,1281,0.0914673330953231
"703","UFRN",2016,1288,0.113660430638899
"704","PUC_RS",2014,1289,0.0897632311977716
"705","UNB",2009,1290,0.0658297611757502
"706","PUC_RS",2011,1291,0.0899025069637883
"707","UFPE",2011,1306,0.0731693652305451
"708","UFC",2007,1310,0.0565093607108964
"709","UNICAMP",1998,1316,0.028954895489549
"710","UNB",2008,1330,0.0678709940804246
"711","PUC_SP",2009,1334,0.0862091249838439
"712","UFSC",2006,1335,0.0415383179314851
"713","UNB",2011,1335,0.0681261481935089
"714","PUC_SP",2010,1344,0.0868553702985653
"715","UFPE",2012,1374,0.0769791024707266
"716","UNICAMP",1999,1379,0.0303410341034103
"717","UFC",2008,1391,0.0600034509533259
"718","PUC_RS",2015,1397,0.0972841225626741
"719","UFPE",2013,1404,0.0786598689002185
"720","UFRGS",2001,1408,0.021573254067968
"721","UFSC",2012,1432,0.0445564578860574
"722","UNB",2012,1475,0.0752704633598694
"723","UFMG",2011,1505,0.107461620849697
"724","UNESP",2006,1507,0.0432822103509679
"725","UFSC",2005,1515,0.0471389900121348
"726","UNICAMP",2000,1517,0.0333773377337734
"727","UFBA",2013,1523,0.167087218869995
"728","UFMG",2013,1529,0.109175294537665
"729","UFPE",2015,1544,0.0865034455711805
"730","UFMG",2012,1565,0.111745805069618
"731","UFSC",2004,1577,0.0490681103954697
"732","USP",2003,1595,0.0204521266364907
"733","UFC",2010,1602,0.0691053403502718
"734","UFSC",2014,1615,0.0502504745013846
"735","UFC",2009,1625,0.0700974894314554
"736","UFPE",2016,1760,0.0986049638635218
"737","USP",2004,1786,0.022901252772898
"738","UFC",2011,1790,0.077215080666034
"739","UNB",2014,1858,0.094815268422127
"740","UNB",2015,1860,0.0949173300673607
"741","UNESP",2007,1862,0.0534780860474467
"742","UNICAMP",2008,1885,0.0414741474147415
"743","UNICAMP",2001,1892,0.0416281628162816
"744","UFRGS",2018,1895,0.0290350258940336
"745","UNB",2013,1901,0.097009593794652
"746","UNICAMP",2002,1905,0.0419141914191419
"747","UFSC",2001,1920,0.0597405021935966
"748","UFSC",2013,1921,0.0597716170384891
"749","UNICAMP",2006,1935,0.0425742574257426
"750","UFC",2016,1936,0.0835130704857217
"751","UFSC",2016,1949,0.060642832695479
"752","UNICAMP",2007,1960,0.0431243124312431
"753","UNICAMP",2004,1990,0.0437843784378438
"754","UNICAMP",2005,2011,0.0442464246424642
"755","UNICAMP",2003,2023,0.0445104510451045
"756","UNICAMP",2010,2063,0.0453905390539054
"757","UNB",2017,2066,0.105429679526434
"758","UFSC",2015,2067,0.0643143843927938
"759","UNB",2016,2068,0.105531741171668
"760","UNESP",2008,2075,0.059595611465334
"761","UNICAMP",2009,2092,0.046028602860286
"762","UNICAMP",2012,2094,0.0460726072607261
"763","UFSC",2003,2100,0.0653411742742462
"764","UFSC",2002,2159,0.0671769501229036
"765","UFRGS",2002,2178,0.033371127386388
"766","UNICAMP",2011,2179,0.0479427942794279
"767","UNICAMP",2014,2188,0.0481408140814081
"768","UNESP",2009,2240,0.0643345396059509
"769","UNICAMP",2013,2256,0.0496369636963696
"770","UNESP",2018,2306,0.0662301108621977
"771","USP",2005,2316,0.0296972572351802
"772","USP",2018,2350,0.0301332273327606
"773","UFC",2015,2363,0.10193253386248
"774","UFRGS",2003,2380,0.0364661538932982
"775","UFRGS",2004,2386,0.0365580853737015
"776","UFC",2012,2388,0.10301095677681
"777","UNESP",2010,2408,0.0691596300763973
"778","UNESP",2017,2420,0.0695042793957149
"779","UFC",2013,2451,0.105728582520921
"780","UNESP",2011,2554,0.073352863461428
"781","UNESP",2012,2569,0.073783675110575
"782","UFC",2014,2601,0.112199120006902
"783","UNESP",2016,2631,0.0755643632603826
"784","UNESP",2013,2782,0.0799012005284623
"785","UNESP",2015,2943,0.08452524556264
"786","UNESP",2014,3010,0.0864495375954966
"787","UFRGS",2005,3076,0.0471302056200778
"788","UFRGS",2006,3156,0.0483559586921215
"789","UFRGS",2007,3270,0.0501026568197837
"790","UFRGS",2008,3326,0.0509606839702142
"791","UFRGS",2010,3552,0.0544234363987375
"792","USP",2006,3604,0.0462128303435188
"793","UFRGS",2009,3746,0.0573958875984433
"794","UFRGS",2011,3776,0.0578555450004597
"795","UFRGS",2013,4165,0.0638157693132718
"796","UFRGS",2012,4322,0.0662213097171575
"797","UFRGS",2014,4361,0.0668188643397788
"798","UFRGS",2017,4418,0.0676922134036098
"799","USP",2007,4452,0.0570864374831703
"800","UFRGS",2015,4601,0.0704961235559097
"801","UFRGS",2016,4663,0.0714460821867435
"802","USP",2008,4820,0.0618051726569813
"803","USP",2011,5157,0.0661264056829984
"804","USP",2010,5201,0.0666906022798672
"805","USP",2009,5212,0.0668316514290843
"806","USP",2012,5648,0.0724223267980561
"807","USP",2017,5673,0.0727428930462769
"808","USP",2014,5693,0.0729993460448536
"809","USP",2013,5736,0.0735507199917935
"810","USP",2015,6022,0.0772179978714401
"811","USP",2016,6193,0.0794106710092708
